{
  "images" : [
    {
      "idiom" : "universal",
      "filename" : "CLOCK_ICON-grey2-93a84415fc809c234fece6ec1914e4b3.png",
      "scale" : "1x"
    },
    {
      "idiom" : "universal",
      "scale" : "2x"
    },
    {
      "idiom" : "universal",
      "scale" : "3x"
    }
  ],
  "info" : {
    "version" : 1,
    "author" : "xcode"
  }
}